[
    {
        "id": "2645bd94-3624-43fc-b21f-1209d730fc71",
        "title": "An image by Claire",
        "fileName": "8d351bbb-f760-4b56-9d4e-e8d61619bf70.jpg"
    },
    {
        "id": "5e0e1379-3e8e-4f51-99f1-1fb9ec3a19b0",
        "title": "An image by Claire",
        "fileName": "dc3f39bf-d1da-465d-9ea4-935902c2e3d2.jpg"
    },
    {
        "id": "3f41dc87-e8de-42ee-ac8d-355e4d3e1a2d",
        "title": "An image by Claire",
        "fileName": "b2894002-0b7c-4f05-896a-856283012c87.jpg"
    },
    {
        "id": "136f358d-98fb-4961-855c-59d5a6d1fa19",
        "title": "An image by Claire",
        "fileName": "cd139111-c82e-4bc8-9f7d-43a1059bfe73.jpg"
    },
    {
        "id": "d3118665-43e3-4905-8848-5e335a428dd5",
        "title": "An image by Claire",
        "fileName": "cc412f08-2a7b-4225-b659-07fdb168302d.jpg"
    },
    {
        "id": "ae03d971-40a6-4350-b8a9-7b12e1d93d71",
        "title": "An image by Claire",
        "fileName": "fdfe7329-e05c-41fb-a7c7-4f3226d28c49.jpg"
    },
    {
        "id": "ab46efdb-0384-400c-89cb-95bba1c500e9",
        "title": "An image by Claire",
        "fileName": "e0e32179-109c-4a8a-bf91-3d65ff83ca29.jpg"
    },
    {
        "id": "939df3fd-de57-4caf-96dc-c5e110322a96",
        "title": "An image by Frank",
        "fileName": "5c20ca95-bb00-4ef1-8b85-c4b11e66eb54.jpg"
    },
    {
        "id": "b24e3df5-0394-468d-9c1d-db1252fea920",
        "title": "An image by Frank",
        "fileName": "46194927-ccda-432f-bc95-4820318c08c7.jpg"
    },
    {
        "id": "d70f656d-75a7-45fc-b385-e4daa834e6a8",
        "title": "An image by Frank",
        "fileName": "6b33c074-65cf-4f2b-913a-1b2d4deb7050.jpg"
    },
    {
        "id": "25320c5e-f58a-4b1f-b63a-8ee07a840bdf",
        "title": "An image by Frank",
        "fileName": "3fbe2aea-2257-44f2-b3b1-3d8bacade89c.jpg"
    },
    {
        "id": "1efe7a31-8dcc-4ff0-9b2d-5f148e2989cc",
        "title": "An image by Frank",
        "fileName": "43de8b65-8b19-4b87-ae3c-df97e18bd461.jpg"
    },
    {
        "id": "9f35e705-637a-4bbe-8c35-402b2ecf7128",
        "title": "An image by Frank",
        "fileName": "4cdd494c-e6e1-4af1-9e54-24a8e80ea2b4.jpg"
    },
    {
        "id": "ce1d2b1c-7869-4df5-9a32-2cbaca8c3234",
        "title": "An image by Frank",
        "fileName": "7e80a4c8-0a8a-4593-a16f-2e257294a1f9.jpg"
    }
]